LTRE from Data · VitalRateModels.jl
…
bad_demo, bad_recruits = simulate_year(
    500;
    surv_int=-2.6,
    surv_slope=0.42,
    grow_int=0.7,
    grow_slope=0.82,
    grow_sd=0.9,
    fec_int=-4.0,
    fec_slope=0.28,
    recruit_mean=1.0,
)

(500×4 DataFrame
 Row │ size_t   size_t1  survived  fecundity 
     │ Float64  Float64  Bool      Int64     
─────┼───────────────────────────────────────
   1 │ 5.6036   4.81241      true          1
   2 │ 2.40282  0.0         false          0
   3 │ 5.63562  0.0         false          0
   4 │ 2.61297  3.65357      true          0
   5 │ 3.15462  0.0         false          0
   6 │ 3.97653  4.54039      true          0
   7 │ 1.79145  0.0         false          0
   8 │ 4.66944  2.69135      true          0
  ⋮  │    ⋮        ⋮        ⋮          ⋮
 494 │ 5.76532  5.41706      true          0
 495 │ 4.10882  4.05675      true          0
 496 │ 5.43653  0.0         false          0
 497 │ 4.02793  0.0         false          0
 498 │ 7.43669  6.58429      true          0
 499 │ 3.59751  3.39284      true          0
 500 │ 4.91601  0.0         false          0
                             485 rows omitted, 12×2 DataFrame
…
